<?xml version="1.0" encoding="utf-8"?>
<!-- Generator: Adobe Illustrator 24.1.3, SVG Export Plug-In . SVG Version: 6.00 Build 0)  -->
<svg version="1.1" id="Layer_1" xmlns="http://www.w3.org/2000/svg" xmlns:xlink="http://www.w3.org/1999/xlink" x="0px" y="0px"
	 viewBox="0 0 100 50" style="enable-background:new 0 0 100 50;" xml:space="preserve">
<style type="text/css">
	.st0{fill:url(#SVGID_1_);}
	.st1{fill:url(#SVGID_2_);}
	.st2{fill:url(#SVGID_3_);}
	.st3{fill:#1C3E20;}
	.st4{fill:#010101;}
	.st5{fill:#FFFFFF;}
</style>
<g>
	<linearGradient id="SVGID_1_" gradientUnits="userSpaceOnUse" x1="4.1564" y1="43.7725" x2="95.5498" y2="43.7725">
		<stop  offset="0" style="stop-color:#F69320"/>
		<stop  offset="1" style="stop-color:#F06024"/>
	</linearGradient>
	<rect x="4.2" y="39.3" class="st0" width="91.4" height="8.9"/>
	<g>
		<g>
			<g>
				<g>
					<g>
						<linearGradient id="SVGID_2_" gradientUnits="userSpaceOnUse" x1="18.1927" y1="29.4215" x2="27.0639" y2="6.7437">
							<stop  offset="0" style="stop-color:#F69320"/>
							<stop  offset="1" style="stop-color:#F06024"/>
						</linearGradient>
						<path class="st1" d="M40.2,20.4c-0.1-0.3-0.3-1-0.3-1c-1.6-8.2-5.6-10.9-5.6-10.9c-5.2,3.3-6.5,8.9-6.5,8.9
							c-2.7-5.7,0-12.7,0-12.7l-3.1-0.1c0,0-0.3-0.3-0.8-1.1c-0.5-0.8-1.4-1.7-3.7-1.8c-2.3-0.1-5.6,0.4-9.7,3.4
							c-4.1,3.1-5.6,7.6-6.1,10.5s0.2,7.1,4,10.3c3.8,3.1,9.2,1.3,9.2,1.3v-2.7l-0.2,0c-1.8,0.2-3.4,0.2-4.6-0.1
							c-4.2-1.2-4.5-5-4.5-5c-0.2-5,4-7.2,4-7.2l0.7,0.5c-2.6,2.1-2.5,4.7-2.3,5.9c0.2,1.6,1.1,1.7,1.1,1.7
							c-0.2-2.4,0.7-3.6,0.7-3.6c1.8-2.7,4.9-2.7,4.9-2.7c2.7,0.2,2.9,1.9,2.8,3.1c-0.1,1.2-1,4-1,4l0.9-1c0.2,0.5,0,1.5-0.7,3.5
							c-0.7,2-0.6,4.6-0.6,4.6h6.6c0.3-0.6,0.5-2.6,0.8-5s1.7-2.9,1.7-2.9c0.7-0.1,2.1-0.3,4,1.7s2.1,3.9,2.1,3.9
							c-0.2-0.3-0.7-0.8-0.7-0.8c0.5,1.3,0.3,2.9,0.3,2.9H38c1.8-3.3,0.8-7.9,0.8-7.9c1.2,0.5,1.4,2.9,1.4,2.9
							C40.7,22,40.3,20.7,40.2,20.4z M15.2,8.3c-0.3,0-0.6-0.3-0.6-0.6s0.3-0.6,0.6-0.6c0.3,0,0.6,0.3,0.6,0.6S15.5,8.3,15.2,8.3z"
							/>
					</g>
					<g>
						<linearGradient id="SVGID_3_" gradientUnits="userSpaceOnUse" x1="12.3813" y1="28.7971" x2="15.2468" y2="18.6088">
							<stop  offset="0" style="stop-color:#F69320"/>
							<stop  offset="1" style="stop-color:#F06024"/>
						</linearGradient>
						<path class="st2" d="M14.6,19c0,0.3,0.3,0.6,0.6,0.6c0.3,0,0.6-0.3,0.6-0.6c0-0.3-0.3-0.6-0.6-0.6
							C14.8,18.5,14.6,18.7,14.6,19z"/>
					</g>
					<g>
						<path class="st3" d="M30.1,10.3c1.3-1.9,2.6-3,2.6-3S30.6,6,29.5,5.5c0,0-2.1,4.1-1.7,9.3C27.9,14.7,28.7,12.2,30.1,10.3z"/>
					</g>
				</g>
			</g>
		</g>
		<g>
			<path class="st4" d="M8,32.1H5.6v1.1h2.2v1.1H5.6v2.5H4.2V31H8V32.1z"/>
			<path class="st4" d="M11.9,36.7H8.9v-1h0.8V32H8.9v-1h3.1v1h-0.8v3.7h0.8V36.7z"/>
			<path class="st4" d="M18.1,36.7h-1.4l-2.2-4v4h-1.3V31H15l1.8,3.3V31h1.3V36.7z"/>
			<path class="st4" d="M19,36.7l1.9-5.7h1.6l1.9,5.7H23l-0.4-1.2h-1.8l-0.4,1.2H19z M22.3,34.5l-0.6-1.9l-0.6,1.9H22.3z"/>
			<path class="st4" d="M30.2,36.7h-1.4l-2.2-4v4h-1.3V31h1.8l1.8,3.3V31h1.3V36.7z"/>
			<path class="st4" d="M34.2,36.8c-0.9,0-1.5-0.3-2-0.8c-0.5-0.5-0.8-1.3-0.8-2.2c0-0.9,0.3-1.6,0.8-2.2c0.5-0.5,1.2-0.8,2-0.8
				c0.2,0,0.4,0,0.6,0c0.2,0,0.4,0.1,0.5,0.1c0.1,0,0.3,0.1,0.4,0.2c0.2,0.1,0.3,0.1,0.4,0.2v1.4H36c-0.1-0.1-0.2-0.1-0.3-0.2
				c-0.1-0.1-0.2-0.2-0.4-0.3c-0.1-0.1-0.3-0.2-0.4-0.2C34.8,32,34.6,32,34.4,32c-0.2,0-0.4,0-0.6,0.1c-0.2,0.1-0.3,0.2-0.5,0.3
				c-0.1,0.1-0.3,0.3-0.4,0.6c-0.1,0.2-0.1,0.5-0.1,0.9c0,0.4,0,0.7,0.1,0.9c0.1,0.2,0.2,0.4,0.4,0.6c0.1,0.1,0.3,0.2,0.5,0.3
				c0.2,0.1,0.4,0.1,0.5,0.1c0.2,0,0.4,0,0.5-0.1c0.2-0.1,0.3-0.1,0.4-0.2c0.1-0.1,0.2-0.2,0.3-0.2s0.2-0.2,0.3-0.2h0.1v1.3
				c-0.1,0-0.2,0.1-0.4,0.2s-0.3,0.1-0.4,0.2c-0.2,0.1-0.3,0.1-0.5,0.1C34.7,36.8,34.5,36.8,34.2,36.8z"/>
			<path class="st4" d="M40.1,36.7h-3.1v-1h0.8V32h-0.8v-1h3.1v1h-0.8v3.7h0.8V36.7z"/>
			<path class="st4" d="M40.8,36.7l1.9-5.7h1.6l1.9,5.7h-1.5l-0.4-1.2h-1.8l-0.4,1.2H40.8z M44.1,34.5l-0.6-1.9l-0.6,1.9H44.1z"/>
			<path class="st4" d="M50.9,36.7h-3.8V31h1.4v4.6h2.4V36.7z"/>
			<path class="st4" d="M56.3,36.8c-0.4,0-0.8,0-1.2-0.1c-0.3-0.1-0.6-0.2-0.9-0.3V35h0.1c0.3,0.2,0.6,0.4,1,0.6s0.7,0.2,1,0.2
				c0.1,0,0.2,0,0.3,0c0.1,0,0.2,0,0.3-0.1c0.1,0,0.2-0.1,0.3-0.2c0.1-0.1,0.1-0.2,0.1-0.3c0-0.1-0.1-0.3-0.2-0.4
				c-0.1-0.1-0.2-0.2-0.4-0.2c-0.2-0.1-0.4-0.1-0.6-0.1c-0.2,0-0.4-0.1-0.6-0.2c-0.4-0.2-0.8-0.4-1-0.6c-0.2-0.3-0.3-0.6-0.3-1
				c0-0.5,0.2-1,0.7-1.3c0.5-0.3,1-0.5,1.7-0.5c0.3,0,0.7,0,1,0.1c0.3,0.1,0.6,0.2,0.9,0.3v1.3h-0.1c-0.2-0.2-0.5-0.3-0.8-0.5
				c-0.3-0.1-0.6-0.2-0.9-0.2c-0.1,0-0.2,0-0.3,0c-0.1,0-0.2,0.1-0.3,0.1c-0.1,0-0.2,0.1-0.2,0.2c-0.1,0.1-0.1,0.2-0.1,0.3
				c0,0.1,0.1,0.3,0.2,0.3c0.1,0.1,0.3,0.2,0.6,0.2c0.2,0,0.4,0.1,0.6,0.1s0.4,0.1,0.6,0.2c0.4,0.1,0.7,0.3,0.9,0.6
				c0.2,0.2,0.3,0.6,0.3,1c0,0.6-0.2,1-0.7,1.4C57.7,36.7,57.1,36.8,56.3,36.8z"/>
			<path class="st4" d="M59.9,36.7V31h3.9v1.1h-2.4v1h2.3v1.1h-2.3v1.4h2.4v1.1H59.9z"/>
			<path class="st4" d="M70.3,36.7h-1.8L67,34.6h-0.5v2.1H65V31h2.3c0.3,0,0.6,0,0.8,0.1c0.2,0,0.5,0.1,0.7,0.2
				c0.2,0.1,0.4,0.3,0.5,0.5c0.1,0.2,0.2,0.5,0.2,0.8c0,0.4-0.1,0.8-0.3,1.1c-0.2,0.3-0.5,0.5-0.8,0.7L70.3,36.7z M68,32.7
				c0-0.1,0-0.3-0.1-0.4s-0.1-0.2-0.3-0.2c-0.1,0-0.2-0.1-0.3-0.1c-0.1,0-0.2,0-0.4,0h-0.5v1.5h0.4c0.2,0,0.4,0,0.5,0
				c0.1,0,0.3-0.1,0.4-0.2c0.1-0.1,0.2-0.2,0.2-0.3C68,33,68,32.9,68,32.7z"/>
			<path class="st4" d="M75.9,31l-2,5.7h-1.5l-2-5.7h1.5l1.2,3.9l1.2-3.9H75.9z"/>
			<path class="st4" d="M79.6,36.7h-3.1v-1h0.8V32h-0.8v-1h3.1v1h-0.8v3.7h0.8V36.7z"/>
			<path class="st4" d="M83.3,36.8c-0.9,0-1.5-0.3-2-0.8c-0.5-0.5-0.8-1.3-0.8-2.2c0-0.9,0.3-1.6,0.8-2.2c0.5-0.5,1.2-0.8,2-0.8
				c0.2,0,0.4,0,0.6,0c0.2,0,0.4,0.1,0.5,0.1c0.1,0,0.3,0.1,0.4,0.2c0.2,0.1,0.3,0.1,0.4,0.2v1.4h-0.1c-0.1-0.1-0.2-0.1-0.3-0.2
				c-0.1-0.1-0.2-0.2-0.4-0.3c-0.1-0.1-0.3-0.2-0.4-0.2C83.9,32,83.7,32,83.6,32c-0.2,0-0.4,0-0.6,0.1c-0.2,0.1-0.3,0.2-0.5,0.3
				c-0.1,0.1-0.3,0.3-0.4,0.6C82,33.2,82,33.5,82,33.9c0,0.4,0,0.7,0.1,0.9c0.1,0.2,0.2,0.4,0.4,0.6c0.1,0.1,0.3,0.2,0.5,0.3
				c0.2,0.1,0.4,0.1,0.5,0.1c0.2,0,0.4,0,0.5-0.1c0.2-0.1,0.3-0.1,0.4-0.2c0.1-0.1,0.2-0.2,0.3-0.2c0.1-0.1,0.2-0.2,0.3-0.2h0.1v1.3
				c-0.1,0-0.2,0.1-0.4,0.2c-0.1,0.1-0.3,0.1-0.4,0.2c-0.2,0.1-0.3,0.1-0.5,0.1S83.6,36.8,83.3,36.8z"/>
			<path class="st4" d="M86.4,36.7V31h3.9v1.1h-2.4v1h2.3v1.1h-2.3v1.4h2.4v1.1H86.4z"/>
			<path class="st4" d="M93.4,36.8c-0.4,0-0.8,0-1.2-0.1c-0.3-0.1-0.6-0.2-0.9-0.3V35h0.1c0.3,0.2,0.6,0.4,1,0.6s0.7,0.2,1,0.2
				c0.1,0,0.2,0,0.3,0c0.1,0,0.2,0,0.3-0.1c0.1,0,0.2-0.1,0.3-0.2c0.1-0.1,0.1-0.2,0.1-0.3c0-0.1-0.1-0.3-0.2-0.4s-0.2-0.2-0.4-0.2
				c-0.2-0.1-0.4-0.1-0.6-0.1c-0.2,0-0.4-0.1-0.6-0.2c-0.4-0.2-0.8-0.4-1-0.6c-0.2-0.3-0.3-0.6-0.3-1c0-0.5,0.2-1,0.7-1.3
				c0.5-0.3,1-0.5,1.7-0.5c0.3,0,0.7,0,1,0.1c0.3,0.1,0.6,0.2,0.9,0.3v1.3h-0.1c-0.2-0.2-0.5-0.3-0.8-0.5c-0.3-0.1-0.6-0.2-0.9-0.2
				c-0.1,0-0.2,0-0.3,0c-0.1,0-0.2,0.1-0.3,0.1c-0.1,0-0.2,0.1-0.2,0.2c-0.1,0.1-0.1,0.2-0.1,0.3c0,0.1,0.1,0.3,0.2,0.3
				c0.1,0.1,0.3,0.2,0.6,0.2c0.2,0,0.4,0.1,0.6,0.1s0.4,0.1,0.6,0.2c0.4,0.1,0.7,0.3,0.9,0.6c0.2,0.2,0.3,0.6,0.3,1
				c0,0.6-0.2,1-0.7,1.4C94.7,36.7,94.1,36.8,93.4,36.8z"/>
		</g>
		<g>
			<g>
				<polygon class="st3" points="66,12 63.7,16.9 69.7,16.9 64.1,28.3 73.1,28.3 75.5,23.5 70.8,23.5 73.8,17.4 71,17.4 73.3,12 
									"/>
				<polygon class="st3" points="74,12 71.9,16.9 77.4,16.9 74.4,23 76.5,23 74,28.3 79.5,28.3 81.8,23.5 78.5,23.5 84.1,12 				"/>
			</g>
			<g>
				<path class="st3" d="M56.3,12l-5.8,16.3h-4.8L40,12h5l3.2,10.2L51.4,12H56.3z"/>
				<path class="st3" d="M62.4,12v16.3h-4.8V12H62.4z"/>
			</g>
			<g>
				<path class="st3" d="M95.6,28.3l-4.6,0l-1-2.9l-6.9,0l-1.3,2.9l-1.4,0l2.5-5.4h-3.3l5.3-11l5,0L95.6,28.3z M86.8,16.6l-2.3,5.4
					l4.2,0L86.8,16.6z"/>
			</g>
		</g>
	</g>
	<g>
		<g>
			<path class="st5" d="M15.8,41.5l-1,4.1h-1.1L13,43l-0.6,2.5h-1.1l-1-4.1h1.1l0.6,2.8l0.7-2.8h1l0.7,2.8l0.6-2.8H15.8z"/>
			<path class="st5" d="M18.4,45.6c-0.6,0-1-0.1-1.3-0.4c-0.3-0.3-0.5-0.7-0.5-1.2c0-0.5,0.1-0.9,0.4-1.2s0.7-0.5,1.2-0.5
				c0.5,0,0.8,0.1,1.1,0.4c0.2,0.3,0.4,0.6,0.4,1.1v0.3h-2.1c0,0.1,0,0.3,0.1,0.4c0.1,0.1,0.1,0.2,0.2,0.2c0.1,0.1,0.2,0.1,0.3,0.1
				c0.1,0,0.2,0,0.4,0c0.1,0,0.2,0,0.3,0c0.1,0,0.2-0.1,0.3-0.1c0.1,0,0.2-0.1,0.2-0.1c0.1,0,0.1-0.1,0.2-0.1h0.1v0.8
				c-0.1,0-0.2,0.1-0.2,0.1c-0.1,0-0.2,0.1-0.3,0.1c-0.1,0-0.2,0-0.3,0.1C18.7,45.6,18.6,45.6,18.4,45.6z M18.8,43.6
				c0-0.2-0.1-0.4-0.1-0.5C18.5,43,18.4,43,18.2,43c-0.2,0-0.3,0.1-0.4,0.2c-0.1,0.1-0.2,0.3-0.2,0.5H18.8z"/>
			<path class="st5" d="M27.2,45.6h-1v-2.7l-0.7,1.8h-0.7L24,42.8v2.7h-1v-4.1h1.2l0.9,2l0.9-2h1.2V45.6z"/>
			<path class="st5" d="M30.3,45.2c-0.1,0.1-0.1,0.1-0.2,0.1s-0.1,0.1-0.2,0.1c-0.1,0-0.2,0.1-0.3,0.1c-0.1,0-0.2,0-0.3,0
				c-0.3,0-0.5-0.1-0.7-0.3s-0.3-0.4-0.3-0.7c0-0.2,0-0.4,0.1-0.6s0.2-0.3,0.4-0.3c0.2-0.1,0.4-0.1,0.6-0.2s0.5-0.1,0.8-0.1v0
				c0-0.2-0.1-0.3-0.2-0.4c-0.1-0.1-0.3-0.1-0.6-0.1c-0.1,0-0.2,0-0.4,0.1s-0.3,0.1-0.4,0.2h-0.1v-0.7c0.1,0,0.2-0.1,0.5-0.1
				c0.2,0,0.4-0.1,0.6-0.1c0.5,0,0.9,0.1,1.2,0.3c0.2,0.2,0.4,0.4,0.4,0.8v2.1h-1V45.2z M30.3,44.7v-0.6c-0.2,0-0.3,0-0.4,0
				s-0.2,0-0.3,0.1c-0.1,0-0.1,0.1-0.2,0.1s-0.1,0.1-0.1,0.2c0,0.1,0,0.2,0.1,0.3c0.1,0.1,0.2,0.1,0.3,0.1c0.1,0,0.2,0,0.3-0.1
				C30.1,44.9,30.2,44.8,30.3,44.7z"/>
			<path class="st5" d="M35.4,45.6h-1V44c0-0.1,0-0.2,0-0.4c0-0.1,0-0.2-0.1-0.3c0-0.1-0.1-0.1-0.1-0.2s-0.1,0-0.3,0
				c-0.1,0-0.2,0-0.2,0c-0.1,0-0.2,0.1-0.3,0.1v2.2h-1v-3.1h1v0.3c0.2-0.1,0.3-0.2,0.5-0.3c0.1-0.1,0.3-0.1,0.5-0.1
				c0.3,0,0.6,0.1,0.7,0.3s0.3,0.5,0.3,0.9V45.6z"/>
			<path class="st5" d="M38.4,45.2c-0.1,0.1-0.1,0.1-0.2,0.1s-0.1,0.1-0.2,0.1c-0.1,0-0.2,0.1-0.3,0.1c-0.1,0-0.2,0-0.3,0
				c-0.3,0-0.5-0.1-0.7-0.3s-0.3-0.4-0.3-0.7c0-0.2,0-0.4,0.1-0.6s0.2-0.3,0.4-0.3c0.2-0.1,0.4-0.1,0.6-0.2s0.5-0.1,0.8-0.1v0
				c0-0.2-0.1-0.3-0.2-0.4c-0.1-0.1-0.3-0.1-0.6-0.1c-0.1,0-0.2,0-0.4,0.1s-0.3,0.1-0.4,0.2h-0.1v-0.7c0.1,0,0.2-0.1,0.5-0.1
				c0.2,0,0.4-0.1,0.6-0.1c0.5,0,0.9,0.1,1.2,0.3c0.2,0.2,0.4,0.4,0.4,0.8v2.1h-1V45.2z M38.4,44.7v-0.6c-0.2,0-0.3,0-0.4,0
				s-0.2,0-0.3,0.1c-0.1,0-0.1,0.1-0.2,0.1s-0.1,0.1-0.1,0.2c0,0.1,0,0.2,0.1,0.3c0.1,0.1,0.2,0.1,0.3,0.1c0.1,0,0.2,0,0.3-0.1
				C38.2,44.9,38.3,44.8,38.4,44.7z"/>
			<path class="st5" d="M43.4,45.2c0,0.3,0,0.5-0.1,0.7c-0.1,0.2-0.2,0.4-0.3,0.5c-0.1,0.1-0.3,0.2-0.5,0.2c-0.2,0-0.4,0.1-0.7,0.1
				c-0.2,0-0.4,0-0.6,0c-0.2,0-0.3-0.1-0.5-0.1v-0.8h0.1c0,0,0.1,0,0.2,0.1c0.1,0,0.1,0,0.2,0.1c0.1,0,0.2,0,0.2,0s0.2,0,0.2,0
				c0.2,0,0.3,0,0.4-0.1c0.1,0,0.2-0.1,0.2-0.1c0.1-0.1,0.1-0.1,0.1-0.2c0-0.1,0-0.2,0-0.3v-0.1c-0.1,0.1-0.2,0.2-0.4,0.2
				c-0.1,0.1-0.3,0.1-0.4,0.1c-0.4,0-0.7-0.1-0.9-0.4c-0.2-0.3-0.3-0.7-0.3-1.2c0-0.2,0-0.5,0.1-0.7s0.2-0.4,0.3-0.5
				c0.1-0.1,0.3-0.2,0.4-0.3c0.2-0.1,0.3-0.1,0.5-0.1c0.2,0,0.3,0,0.4,0.1c0.1,0,0.2,0.1,0.3,0.2l0-0.1h0.9V45.2z M42.5,44.6v-1.4
				c0,0-0.1,0-0.2-0.1s-0.1,0-0.2,0c-0.2,0-0.4,0.1-0.5,0.2c-0.1,0.1-0.2,0.4-0.2,0.6c0,0.1,0,0.2,0,0.3s0.1,0.2,0.1,0.2
				c0,0.1,0.1,0.1,0.2,0.2c0.1,0,0.2,0.1,0.3,0.1c0.1,0,0.2,0,0.3,0S42.4,44.6,42.5,44.6z"/>
			<path class="st5" d="M46.3,45.6c-0.6,0-1-0.1-1.3-0.4c-0.3-0.3-0.5-0.7-0.5-1.2c0-0.5,0.1-0.9,0.4-1.2s0.7-0.5,1.2-0.5
				c0.5,0,0.8,0.1,1.1,0.4c0.2,0.3,0.4,0.6,0.4,1.1v0.3h-2.1c0,0.1,0,0.3,0.1,0.4c0.1,0.1,0.1,0.2,0.2,0.2c0.1,0.1,0.2,0.1,0.3,0.1
				c0.1,0,0.2,0,0.4,0c0.1,0,0.2,0,0.3,0c0.1,0,0.2-0.1,0.3-0.1c0.1,0,0.2-0.1,0.2-0.1c0.1,0,0.1-0.1,0.2-0.1h0.1v0.8
				c-0.1,0-0.2,0.1-0.2,0.1c-0.1,0-0.2,0.1-0.3,0.1c-0.1,0-0.2,0-0.3,0.1C46.6,45.6,46.5,45.6,46.3,45.6z M46.6,43.6
				c0-0.2-0.1-0.4-0.1-0.5C46.4,43,46.3,43,46.1,43c-0.2,0-0.3,0.1-0.4,0.2c-0.1,0.1-0.2,0.3-0.2,0.5H46.6z"/>
			<path class="st5" d="M54.3,41.5l-1.4,2.4v1.7h-1v-1.7l-1.4-2.4h1.2l0.8,1.5l0.8-1.5H54.3z"/>
			<path class="st5" d="M58.2,44c0,0.5-0.1,0.9-0.4,1.2c-0.3,0.3-0.7,0.4-1.2,0.4c-0.5,0-0.9-0.1-1.2-0.4C55.1,44.9,55,44.5,55,44
				c0-0.5,0.1-0.9,0.4-1.2c0.3-0.3,0.7-0.4,1.2-0.4c0.5,0,0.9,0.1,1.2,0.4C58,43.1,58.2,43.5,58.2,44z M57.2,44c0-0.2,0-0.3,0-0.5
				s-0.1-0.2-0.1-0.3c-0.1-0.1-0.1-0.1-0.2-0.2c-0.1,0-0.2,0-0.2,0c-0.1,0-0.2,0-0.2,0c-0.1,0-0.1,0.1-0.2,0.2
				c-0.1,0.1-0.1,0.2-0.1,0.3c0,0.1,0,0.3,0,0.5c0,0.2,0,0.3,0,0.5c0,0.1,0.1,0.2,0.1,0.3c0.1,0.1,0.1,0.1,0.2,0.2
				c0.1,0,0.2,0,0.3,0c0.1,0,0.2,0,0.2,0c0.1,0,0.1-0.1,0.2-0.1c0.1-0.1,0.1-0.2,0.1-0.3C57.2,44.4,57.2,44.2,57.2,44z"/>
			<path class="st5" d="M62.1,45.6h-1v-0.3c-0.2,0.1-0.3,0.2-0.5,0.3c-0.1,0.1-0.3,0.1-0.5,0.1c-0.3,0-0.5-0.1-0.7-0.3
				s-0.3-0.5-0.3-0.9v-2h1V44c0,0.2,0,0.3,0,0.4c0,0.1,0,0.2,0.1,0.3c0,0.1,0.1,0.1,0.1,0.1c0.1,0,0.1,0,0.3,0c0.1,0,0.1,0,0.2,0
				c0.1,0,0.2-0.1,0.3-0.1v-2.2h1V45.6z"/>
			<path class="st5" d="M65.5,43.4L65.5,43.4c-0.1,0-0.2,0-0.2,0c-0.1,0-0.1,0-0.2,0c-0.1,0-0.2,0-0.3,0c-0.1,0-0.2,0.1-0.3,0.1v2.1
				h-1v-3.1h1v0.4c0,0,0.1-0.1,0.2-0.2s0.1-0.1,0.2-0.1c0.1,0,0.2-0.1,0.2-0.1c0.1,0,0.2,0,0.3,0c0,0,0.1,0,0.1,0c0,0,0.1,0,0.1,0
				V43.4z"/>
			<path class="st5" d="M72.9,45.6h-1v-2.7l-0.7,1.8h-0.7l-0.7-1.8v2.7h-1v-4.1h1.2l0.9,2l0.9-2h1.2V45.6z"/>
			<path class="st5" d="M77.2,44c0,0.5-0.1,0.9-0.4,1.2c-0.3,0.3-0.7,0.4-1.2,0.4c-0.5,0-0.9-0.1-1.2-0.4C74.2,44.9,74,44.5,74,44
				c0-0.5,0.1-0.9,0.4-1.2c0.3-0.3,0.7-0.4,1.2-0.4c0.5,0,0.9,0.1,1.2,0.4C77.1,43.1,77.2,43.5,77.2,44z M76.2,44c0-0.2,0-0.3,0-0.5
				s-0.1-0.2-0.1-0.3c-0.1-0.1-0.1-0.1-0.2-0.2c-0.1,0-0.2,0-0.2,0c-0.1,0-0.2,0-0.2,0c-0.1,0-0.1,0.1-0.2,0.2
				c-0.1,0.1-0.1,0.2-0.1,0.3c0,0.1,0,0.3,0,0.5c0,0.2,0,0.3,0,0.5c0,0.1,0.1,0.2,0.1,0.3c0.1,0.1,0.1,0.1,0.2,0.2
				c0.1,0,0.2,0,0.3,0c0.1,0,0.2,0,0.2,0c0.1,0,0.1-0.1,0.2-0.1c0.1-0.1,0.1-0.2,0.1-0.3C76.2,44.4,76.2,44.2,76.2,44z"/>
			<path class="st5" d="M81.2,45.6h-1V44c0-0.1,0-0.2,0-0.4c0-0.1,0-0.2-0.1-0.3c0-0.1-0.1-0.1-0.1-0.2s-0.1,0-0.3,0
				c-0.1,0-0.2,0-0.2,0s-0.2,0.1-0.3,0.1v2.2h-1v-3.1h1v0.3c0.2-0.1,0.3-0.2,0.5-0.3c0.2-0.1,0.3-0.1,0.5-0.1c0.3,0,0.6,0.1,0.7,0.3
				s0.3,0.5,0.3,0.9V45.6z"/>
			<path class="st5" d="M84,45.6c-0.6,0-1-0.1-1.3-0.4c-0.3-0.3-0.5-0.7-0.5-1.2c0-0.5,0.1-0.9,0.4-1.2s0.7-0.5,1.2-0.5
				c0.5,0,0.8,0.1,1.1,0.4c0.2,0.3,0.4,0.6,0.4,1.1v0.3h-2.1c0,0.1,0,0.3,0.1,0.4c0.1,0.1,0.1,0.2,0.2,0.2c0.1,0.1,0.2,0.1,0.3,0.1
				c0.1,0,0.2,0,0.4,0c0.1,0,0.2,0,0.3,0c0.1,0,0.2-0.1,0.3-0.1c0.1,0,0.2-0.1,0.2-0.1c0.1,0,0.1-0.1,0.2-0.1h0.1v0.8
				c-0.1,0-0.2,0.1-0.2,0.1c-0.1,0-0.2,0.1-0.3,0.1c-0.1,0-0.2,0-0.3,0.1S84.2,45.6,84,45.6z M84.4,43.6c0-0.2-0.1-0.4-0.1-0.5
				S84,43,83.8,43c-0.2,0-0.3,0.1-0.4,0.2c-0.1,0.1-0.2,0.3-0.2,0.5H84.4z"/>
			<path class="st5" d="M89.3,42.5l-1.6,4.2h-1l0.5-1.2l-1.1-3h1l0.6,1.9l0.6-1.9H89.3z"/>
			<path class="st5" d="M90,45.1c0-0.3,0.2-0.5,0.5-0.5c0.3,0,0.5,0.2,0.5,0.5c0,0.3-0.2,0.5-0.5,0.5C90.3,45.6,90,45.4,90,45.1z
				 M90.1,44.2L90,41.8H91l-0.1,2.5H90.1z"/>
		</g>
	</g>
</g>
</svg>
